{
  "data":[
    {
      "type":"comment",
      "id":"7",
      "attributes":{
        "comment":"Maxime recusandae quam deserunt rerum rerum quia. Blanditiis est nesciunt quaerat eligendi. Iste beatae voluptas nam repellat quibusdam. Nisi praesentium dolorem magni eligendi ad. Reiciendis qui sed voluptatem quos et laborum porro.",
        "temporary_display_name":"Autem vel ratione impedit id itaque hic deleniti. Provident occaecati quaerat unde placeat atque. Autem aut cupiditate quam sint. Enim est omnis eos autem doloribus. Optio cumque iste laborum reiciendis vel occaecati aut.",
        "user":"2",
        "created_on":"2019-05-27 11:55:56",
        "deleted_at":null,
        "like_count":"0",
        "is_liked":false
      },
      "relationships":{
        "content":{
          "data":{
            "type":"content",
            "id":"1"
          }
        }
      }
    },
    {
      "type":"comment",
      "id":"8",
      "attributes":{
        "comment":"Sed eveniet sed voluptatem reprehenderit vel repellat. Voluptatum consequatur et voluptate rerum iusto quam. Placeat optio sunt dolorem alias ea nihil totam.",
        "temporary_display_name":"Eligendi beatae laborum reiciendis aspernatur quam expedita repellendus impedit. Nesciunt et itaque nihil ut temporibus qui. Id dicta harum dolore.",
        "user":"2",
        "created_on":"2019-05-27 11:55:56",
        "deleted_at":null,
        "like_count":"0",
        "is_liked":false
      },
      "relationships":{
        "content":{
          "data":{
            "type":"content",
            "id":"1"
          }
        }
      }
    }
  ],
  "included":[
    {
      "type":"content",
      "id":"1",
      "attributes":{
        "slug":"Consectetur magni quisquam a possimus. Perspiciatis ut nobis quos aliquam adipisci. Qui tempore quia qui sit porro incidunt tempore. Suscipit excepturi facilis rerum ratione. Natus officia enim et nemo molestias cupiditate.",
        "type":"course lesson",
        "sort":"704415625",
        "status":"In et alias fuga voluptatem et. Velit maxime debitis unde praesentium dolore rem modi amet. Aut odio id dolor omnis dolores. Non iusto asperiores itaque perferendis. Ut ea aspernatur tempora quia nulla rerum iste.",
        "brand":"brand",
        "language":"Dolore dolores temporibus minima eius velit provident est in. Eveniet vel veritatis deleniti dolore sed et aut adipisci. Enim necessitatibus quia quaerat omnis beatae mollitia.",
        "user":"",
        "published_on":{
          "date":"2012-10-04 18:18:18.000000",
          "timezone_type":3,
          "timezone":"UTC"
        },
        "archived_on":{
          "date":"2003-09-29 03:56:43.000000",
          "timezone_type":3,
          "timezone":"UTC"
        },
        "created_on":{
          "date":"2010-03-01 05:16:25.000000",
          "timezone_type":3,
          "timezone":"UTC"
        },
        "difficulty":"Recusandae necessitatibus ducimus ullam excepturi sunt et placeat. Eaque at porro tempora praesentium facere. Eos eum nisi quam nam non earum dolores facilis.",
        "home_staff_pick_rating":"395300498",
        "legacy_id":1609818683,
        "legacy_wordpress_post_id":1321383709,
        "qna_video":"Optio et sapiente debitis. Aliquam qui ut qui. Et qui est laboriosam consequatur aliquid.",
        "style":"Sunt ex ullam voluptatem est. Saepe debitis rerum est perferendis saepe. Autem ut ad accusamus similique accusamus nihil. Optio dolore quasi adipisci et. Ut non vel culpa. Numquam rerum et quaerat labore. Officia molestiae error in neque aperiam.",
        "title":"Eum commodi totam ad numquam rem quasi enim.",
        "xp":498024232,
        "album":"Aperiam nam pariatur quibusdam. Perspiciatis perferendis esse quisquam eum. Laboriosam ratione corrupti explicabo quo dolore dolor. Autem tempore dicta commodi iste praesentium vel.",
        "artist":"Ipsa quasi non ex aliquid earum. Dignissimos sed maiores architecto omnis et. Quos officia et alias nihil similique voluptas. Quia vitae nulla qui eos occaecati. Consequuntur quia vel nemo assumenda error. Quos est dolore aspernatur sapiente sit quo.",
        "bpm":"Dolor ratione sint facilis perferendis autem doloremque dolorem. Necessitatibus dolor odio sint suscipit neque at quae labore. Magni laborum voluptas quidem veritatis ratione dicta.",
        "cd_tracks":"In quia commodi voluptatem laboriosam aperiam. Qui aliquam quaerat occaecati voluptate laudantium. Officia deleniti modi est quo est aperiam vitae odit. Aut est vero veniam ratione doloremque dolorem. Quaerat nostrum dolorem autem nostrum natus ullam.",
        "chord_or_scale":"Nihil est dignissimos accusantium non aperiam blanditiis. Modi molestiae repellat distinctio quisquam. Laborum officia adipisci culpa tempora ea. Vel quasi corporis consequatur architecto. Occaecati velit maiores quas distinctio sunt nesciunt sint.",
        "difficulty_range":"Quidem voluptate molestiae accusamus sequi sed. Vel sit dolorem exercitationem ut. Consequatur omnis nihil dolorem magnam aut tempora. Aut et impedit ex vero.",
        "episode_number":740686606,
        "exercise_book_pages":"Rem et ratione velit est velit. Rerum consequuntur iusto aperiam qui qui debitis ut qui. Alias doloribus enim assumenda qui laudantium occaecati aperiam. At id omnis eos laboriosam sint perspiciatis est.",
        "fast_bpm":"Molestiae et et eos debitis magnam expedita. Velit sint esse commodi ipsam. Voluptas rerum ducimus quod assumenda asperiores.",
        "includes_song":false,
        "instructors":"Qui odio sed voluptatem tempora incidunt consequatur. Deleniti ut sed modi provident rerum temporibus aliquid. Incidunt molestias corporis qui nesciunt labore.",
        "live_event_start_time":{
          "date":"1989-04-18 06:32:48.000000",
          "timezone_type":3,
          "timezone":"UTC"
        },
        "live_event_end_time":{
          "date":"2016-06-18 21:09:35.000000",
          "timezone_type":3,
          "timezone":"UTC"
        },
        "live_event_youtube_id":"Est vel amet quis consequatur deserunt. Sunt ut optio atque et. Est ducimus incidunt veritatis saepe in nostrum aut.",
        "live_stream_feed_type":"Quas maiores labore consequuntur. Vel quia at nesciunt esse. Consequuntur earum architecto optio ipsa id non ad. In eos eaque provident minus.",
        "name":"Quasi reiciendis provident qui consequatur quae fuga error. Est quia ut voluptates eos ipsa. Magni ipsa consectetur officia autem eius nobis magni.",
        "released":"Rerum voluptas inventore beatae quaerat qui molestias recusandae. Quo dolores animi architecto ut. Quos eveniet libero tenetur repudiandae porro voluptas. Nulla aliquid hic assumenda laudantium iusto.",
        "slow_bpm":"Nisi maxime harum assumenda beatae minus et maiores. Quia maxime incidunt quod soluta. Vero sapiente qui culpa recusandae voluptatum.",
        "total_xp":"Perferendis consequatur reprehenderit explicabo nihil veniam sit. Distinctio et voluptas aut ab alias rerum repellat. Dolorum tempora qui commodi iste est quasi iure.",
        "transcriber_name":"Aspernatur dolor quia modi quia. Omnis ullam vel nisi ut cum delectus illum.",
        "week":135344764,
        "avatar_url":"Ea repellat qui qui molestias iure. Distinctio officiis excepturi unde est eos architecto. Eos perspiciatis officia sint qui aut. Quis odio odio quae qui nihil blanditiis et dolorem.",
        "length_in_seconds":611338636,
        "soundslice_slug":"Illo est molestias est quaerat. Ab et porro cumque et quod et maxime ut. Ad labore magni tempore facere veniam est voluptatibus.",
        "staff_pick_rating":132184639,
        "student_id":884610992,
        "vimeo_video_id":"Tempore rerum quo repellendus. Dolores esse et animi deserunt. Ut non reprehenderit et perspiciatis labore cum.",
        "youtube_video_id":"Eos dolore quae deserunt. Sit deleniti deleniti numquam. Quaerat non possimus perspiciatis autem porro et. Ut accusamus aliquid eum. Et est et perspiciatis molestias consequuntur repellat. Quia omnis alias dolor doloremque sunt et tempore."
      }
    }
  ],
  "meta":{
    "pagination":{
      "total":12,
      "count":2,
      "per_page":2,
      "current_page":4,
      "total_pages":6
    }
  },
  "links":{
    "self":"http:\/\/localhost\/railcontent\/comment\/3?limit=2&page=4",
    "first":"http:\/\/localhost\/railcontent\/comment\/3?limit=2&page=1",
    "prev":"http:\/\/localhost\/railcontent\/comment\/3?limit=2&page=3",
    "next":"http:\/\/localhost\/railcontent\/comment\/3?limit=2&page=5",
    "last":"http:\/\/localhost\/railcontent\/comment\/3?limit=2&page=6"
  }
}